﻿zip,nom,ins,nom_ins,id_region,region
8511,Aalbeke,34022,COURTRAI,1,Flandre
9300,Aalst,41002,ALOST,1,Flandre
8211,Aartrijke,31040,ZEDELGEM,1,Flandre
2630,Aartselaar,11001,AARTSELAAR,1,Flandre
5362,Achet,91059,HAMOIS,2,Wallonie
9991,Adegem,43010,MALDEGEM,1,Flandre
5544,Agimont,91142,HASTIERE,2,Wallonie
3570,Alken,73001,ALKEN,1,Flandre
1652,Alsemberg,23003,BEERSEL,1,Flandre
6150,Anderlues,56001,ANDERLUES,2,Wallonie
4821,Andrimont,63020,DISON,2,Wallonie
4031,Angleur,62063,LIEGE,2,Wallonie
6721,Anlier,85046,HABAY,2,Wallonie
4430,Ans,62003,ANS,2,Wallonie
4160,Anthisnes,61079,ANTHISNES,2,Wallonie
2000,Antwerpen,11002,ANVERS,1,Flandre
2018,Antwerpen,11002,ANVERS,1,Flandre
2020,Antwerpen,11002,ANVERS,1,Flandre
2030,Antwerpen,11002,ANVERS,1,Flandre
2050,Antwerpen,11002,ANVERS,1,Flandre
2060,Antwerpen,11002,ANVERS,1,Flandre
7811,Arbre (Ht.),51004,ATH,2,Wallonie
8850,Ardooie,37020,ARDOOIE,1,Flandre
2370,Arendonk,13001,ARENDONK,1,Flandre
4601,Argenteau,62108,VISE,2,Wallonie
3665,As,71002,AS,1,Flandre
9404,Aspelare,41048,NINOVE,1,Flandre
9960,Assenede,43002,ASSENEDE,1,Flandre
6791,Athus,81004,AUBANGE,2,Wallonie
3384,Attenrode,24137,GLABBEEK,1,Flandre
7941,Attre,51012,BRUGELETTE,2,Wallonie
6790,Aubange,81004,AUBANGE,2,Wallonie
4880,Aubel,63003,AUBEL,2,Wallonie
7382,Audregnies,53068,QUIEVRAIN,2,Wallonie
6706,Autelbas,81001,ARLON,2,Wallonie
8580,Avelgem,34003,AVELGEM,1,Flandre
3128,Baal,24109,TREMELO,1,Flandre
2387,Baarle-Hertog,13002,BAERLE-DUC,1,Flandre
2490,Balen,13003,BALEN,1,Flandre
6951,Bande,83040,NASSOGNE,2,Wallonie
4983,Basse-Bodeux,63086,TROIS-PONTS,2,Wallonie
4651,Battice,63035,HERVE,2,Wallonie
7331,Baudour,53070,SAINT-GHISLAIN,2,Wallonie
1401,Baulers,25072,NIVELLES,2,Wallonie
4052,Beaufays,62022,CHAUDFONTAINE,2,Wallonie
6594,Beauwelz,56051,MOMIGNIES,2,Wallonie
7532,Beclers,57081,TOURNAI,2,Wallonie
1650,Beersel,23003,BEERSEL,1,Flandre
1673,Beert,23064,PEPINGEN,1,Flandre
6672,Beho,82037,GOUVY,2,Wallonie
1852,Beigem,23025,GRIMBERGEN,1,Flandre
3460,Bekkevoort,24008,BEKKEVOORT,1,Flandre
5001,Belgrade,92094,NAMUR,2,Wallonie
9881,Bellem,44001,AALTER,1,Flandre
6834,Bellevaux,84010,BOUILLON,2,Wallonie
1674,Bellingen,23064,PEPINGEN,1,Flandre
7970,Beloeil,51008,BELOEIL,2,Wallonie
9111,Belsele (Sint-Niklaas),46021,SAINT-NICOLAS,1,Flandre
2600,Berchem (Antwerpen),11002,ANVERS,1,Flandre
3580,Beringen,71004,BERINGEN,1,Flandre
7320,Bernissart,51009,BERNISSART,2,Wallonie
6687,Bertogne,82005,BERTOGNE,2,Wallonie
3130,Betekom,24007,BEGIJNENDIJK,1,Flandre
8791,Beveren (Leie),34040,WAREGEM,1,Flandre
3581,Beverlo,71004,BERINGEN,1,Flandre
6543,Bienne-lez-Happart,56044,LOBBES,2,Wallonie
6533,Biercée,56078,THUIN,2,Wallonie
1301,Bierges,25112,WAVRE,2,Wallonie
6531,Biesme-sous-Thuin,56078,THUIN,2,Wallonie
1547,Bievene,23009,BIEVENE,1,Flandre
4831,Bilstain,63046,LIMBOURG,2,Wallonie
3211,Binkom,24066,LUBBEEK,1,Flandre
7783,Bizet,54010,COMINES-WARNETON,2,Wallonie
5542,Blaimont,91142,HASTIERE,2,Wallonie
3052,Blanden,24086,OUD-HEVERLEE,1,Flandre
2530,Boechout,11004,BOECHOUT,1,Flandre
9961,Boekhoute,43002,ASSENEDE,1,Flandre
4653,Bolland,63035,HERVE,2,Wallonie
5021,Boninne,92094,NAMUR,2,Wallonie
7603,Bon-Secours,57064,PERUWELZ,2,Wallonie
2221,Booischot,12014,HEIST-OP-DEN-BERG,1,Flandre
2850,Boom,11005,BOOM,1,Flandre
3190,Boortmeerbeek,24014,BOORTMEERBEEK,1,Flandre
1761,Borchtlombeek,23097,ROOSDAAL,1,Flandre
2140,Borgerhout (Antwerpen),11002,ANVERS,1,Flandre
1404,Bornival,25072,NIVELLES,2,Wallonie
2150,Borsbeek (Antw.),11007,BORSBEEK,1,Flandre
9552,Borsbeke,41027,HERZELE,1,Flandre
8583,Bossuit,34003,AVELGEM,1,Flandre
5004,Bouge,92094,NAMUR,2,Wallonie
7300,Boussu,53014,BOUSSU,2,Wallonie
7803,Bouvignies,51004,ATH,2,Wallonie
2288,Bouwel,13010,GROBBENDONK,1,Flandre
6671,Bovigny,82037,GOUVY,2,Wallonie
1420,Braine-l'Alleud,25014,BRAINE-L£ALLEUD,2,Wallonie
2930,Brasschaat,11008,BRASSCHAAT,1,Flandre
7130,Bray,56011,BINCHE,2,Wallonie
8450,Bredene,35002,BREDENE,1,Flandre
1931,Brucargo,23094,ZAVENTEM,1,Flandre
1000,Bruxelles,21004,BRUXELLES,3,Bruxelles
1070,Bruxelles (Anderlecht),21001,ANDERLECHT,3,Bruxelles
1071,Bruxelles (Anderlecht),21004,BRUXELLES,3,Bruxelles
1071,Bruxelles (Anderlecht),21004,BRUXELLES,3,Bruxelles
1934,Bruxelles X-Aeroport Remailing,23094,ZAVENTEM,1,Flandre
7641,Bruyelle,57003,ANTOING,2,Wallonie
6222,Brye,52021,FLEURUS,2,Wallonie
1501,Buizingen,23027,HAL,1,Flandre
7602,Bury,57064,PERUWELZ,2,Wallonie
7133,Buvrinnes,56011,BINCHE,2,Wallonie
6743,Buzenol,85009,ETALLE,2,Wallonie
7642,Calonne,57003,ANTOING,2,Wallonie
7940,Cambron-Casteau,51012,BRUGELETTE,2,Wallonie
1804,Cargovil,23088,VILVORDE,1,Flandre
5561,Celles (Nam.),91072,HOUYET,2,Wallonie
4632,Cérexhe-Heuseux,62099,SOUMAGNE,2,Wallonie
1341,Céroux-Mousty,25121,OTTIGNIES-LOUVAIN-LA-NEUVE,2,Wallonie
6971,Champlon,83049,TENNEVILLE,2,Wallonie
6921,Chanly,84075,WELLIN,2,Wallonie
6742,Chantemelle,85009,ETALLE,2,Wallonie
7903,Chapelle-à-Wattines,57094,LEUZE-EN-HAINAUT,2,Wallonie
6000,Charleroi,52011,CHARLEROI,2,Wallonie
4654,Charneux,63035,HERVE,2,Wallonie
6824,Chassepierre,85011,FLORENVILLE,2,Wallonie
6200,Châtelineau,52012,CHATELET,2,Wallonie
4050,Chaudfontaine,62022,CHAUDFONTAINE,2,Wallonie
4032,Chênée,62063,LIEGE,2,Wallonie
6673,Cherain,82037,GOUVY,2,Wallonie
4602,Cheratte,62108,VISE,2,Wallonie
7521,Chercq,57081,TOURNAI,2,Wallonie
7024,Ciply,53053,MONS,2,Wallonie
5022,Cognelée,92094,NAMUR,2,Wallonie
4170,Comblain-au-Pont,62026,COMBLAIN-AU-PONT,2,Wallonie
6838,Corbion,84010,BOUILLON,2,Wallonie
6010,Couillet,52011,CHARLEROI,2,Wallonie
6180,Courcelles,52015,COURCELLES,2,Wallonie
5336,Courrière,92006,ASSESSE,2,Wallonie
1490,Court-Saint-Etienne,25023,COURT-SAINT-ETIENNE,2,Wallonie
4218,Couthuin,61028,HERON,2,Wallonie
4784,Crombach,63067,SAINT-VITH,2,Wallonie
5332,Crupet,92006,ASSESSE,2,Wallonie
7033,Cuesmes,53053,MONS,2,Wallonie
5562,Custinne,91072,HOUYET,2,Wallonie
6020,Dampremy,52011,CHARLEROI,2,Wallonie
4253,Darion,64029,GEER,2,Wallonie
8660,De Panne,38008,LA PANNE,1,Flandre
8540,Deerlijk,34009,DEERLIJK,1,Flandre
9470,Denderleeuw,41011,DENDERLEEUW,1,Flandre
2480,Dessel,13006,DESSEL,1,Flandre
8792,Desselgem,34040,WAREGEM,1,Flandre
9831,Deurle,44064,SINT-MARTENS-LATEM,1,Flandre
2100,Deurne (Antwerpen),11002,ANVERS,1,Flandre
7864,Deux-Acren,55023,LESSINES,2,Wallonie
1831,Diegem,23047,MACHELEN,1,Flandre
3590,Diepenbeek,71011,DIEPENBEEK,1,Flandre
4820,Dison,63020,DISON,2,Wallonie
6836,Dohan,84010,BOUILLON,2,Wallonie
7711,Dottignies,54007,MOUSCRON,2,Wallonie
8951,Dranouter,33039,HEUVELLAND,1,Flandre
1620,Drogenbos,23098,DROGENBOS,1,Flandre
9031,Drongen,44021,GAND,1,Flandre
2570,Duffel,12009,DUFFEL,1,Flandre
1653,Dworp,23003,BEERSEL,1,Flandre
7191,Ecaussinnes-Lalaing,55050,ECAUSSINES,2,Wallonie
2650,Edegem,11013,EDEGEM,1,Flandre
9900,Eeklo,43005,EEKLO,1,Flandre
2180,Ekeren (Antwerpen),11002,ANVERS,1,Flandre
3941,Eksel,72038,HECHTEL-EKSEL,1,Flandre
1671,Elingen,23064,PEPINGEN,1,Flandre
4750,Elsenborn,63013,BUTGENBACH,2,Wallonie
8906,Elverdinge,33011,YPRES,1,Flandre
4053,Embourg,62022,CHAUDFONTAINE,2,Wallonie
5363,Emptinne,91059,HAMOIS,2,Wallonie
5644,Ermeton-sur-Biert,92087,METTET,2,Wallonie
6972,Erneuville,83049,TENNEVILLE,2,Wallonie
6441,Erpion,56029,FROID-CHAPELLE,2,Wallonie
3071,Erps-Kwerps,24055,KORTENBERG,1,Flandre
7502,Esplechin,57081,TOURNAI,2,Wallonie
2910,Essen,11016,ESSEN,1,Flandre
1040,Etterbeek,21005,ETTERBEEK,3,Bruxelles
4700,Eupen,63023,EUPEN,2,Wallonie
4631,Evegnée,62099,SOUMAGNE,2,Wallonie
1140,Evere,21006,EVERE,3,Bruxelles
4731,Eynatten,63061,RAEREN,2,Wallonie
5522,Falaën,91103,ONHAYE,2,Wallonie
6856,Fays-les-Veneurs,84050,PALISEUL,2,Wallonie
4458,Fexhe-Slins,62060,JUPRELLE,2,Wallonie
4181,Filot,61024,HAMOIR,2,Wallonie
6686,Flamierge,82005,BERTOGNE,2,Wallonie
4620,Fléron,62038,FLERON,2,Wallonie
5334,Florée,92006,ASSESSE,2,Wallonie
5572,Focant,91013,BEAURAING,2,Wallonie
6140,Fontaine-l'Evêque,52022,FONTAINE-L£EVEQUE,2,Wallonie
7643,Fontenoy,57003,ANTOING,2,Wallonie
6141,Forchies-la-Marche,52022,FONTAINE-L£EVEQUE,2,Wallonie
5504,Foy-Notre-Dame,91034,DINANT,2,Wallonie
6853,Framont,84050,PALISEUL,2,Wallonie
5576,Froidfontaine,91013,BEAURAING,2,Wallonie
7504,Froidmont,57081,TOURNAI,2,Wallonie
7503,Froyennes,57081,TOURNAI,2,Wallonie
5500,Furfooz,91034,DINANT,2,Wallonie
5641,Furnaux,92087,METTET,2,Wallonie
7943,Gages,51012,BRUGELETTE,2,Wallonie
7906,Gallaix,57094,LEUZE-EN-HAINAUT,2,Wallonie
1083,Ganshoren,21008,GANSHOREN,3,Bruxelles
7530,Gaurain-Ramecroix (Tournai),57081,TOURNAI,2,Wallonie
2440,Geel,13008,GEEL,1,Flandre
3200,Gelrode,24001,AARSCHOT,1,Flandre
1470,Genappe,25031,GENAPPE,2,Wallonie
3600,Genk,71016,GENK,1,Flandre
9000,Gent,44021,GAND,1,Flandre
1332,Genval,25091,RIXENSART,2,Wallonie
5524,Gerin,91103,ONHAYE,2,Wallonie
2590,Gestel,12002,BERLAAR,1,Flandre
7011,Ghlin,53053,MONS,2,Wallonie
7863,Ghoy,55023,LESSINES,2,Wallonie
7823,Gibecq,51004,ATH,2,Wallonie
6060,Gilly (Charleroi),52011,CHARLEROI,2,Wallonie
1473,Glabais,25031,GENAPPE,2,Wallonie
3380,Glabbeek-Zuurbemde,24137,GLABBEEK,1,Flandre
4834,Goé,63046,LIMBOURG,2,Wallonie
5353,Goesnes,92097,OHEY,2,Wallonie
6041,Gosselies,52011,CHARLEROI,2,Wallonie
6181,Gouy-lez-Piéton,52015,COURCELLES,2,Wallonie
6534,Gozée,56078,THUIN,2,Wallonie
6698,Grand-Halleux,82032,VIELSALM,2,Wallonie
5031,Grand-Leez,92142,GEMBLOUX,2,Wallonie
3450,Grazen,24028,GEETBETS,1,Flandre
1850,Grimbergen,23025,GRIMBERGEN,1,Flandre
2280,Grobbendonk,13010,GROBBENDONK,1,Flandre
1702,Groot-Bijgaarden,23016,DILBEEK,1,Flandre
6952,Grune,83040,NASSOGNE,2,Wallonie
3723,Guigoven,73040,KORTESSEM,1,Flandre
6704,Guirsch,81001,ARLON,2,Wallonie
3053,Haasrode,24086,OUD-HEVERLEE,1,Flandre
6723,Habay-la-Vieille,85046,HABAY,2,Wallonie
6782,Habergy,81015,MESSANCY,2,Wallonie
4684,Haccourt,62079,OUPEYE,2,Wallonie
6720,Hachy,85046,HABAY,2,Wallonie
5351,Haillot,92097,OHEY,2,Wallonie
1500,Halle,23027,HAL,1,Flandre
6986,Halleux,83031,LA-ROCHE-EN-ARDENNE,2,Wallonie
6922,Halma,84075,WELLIN,2,Wallonie
4180,Hamoir,61024,HAMOIR,2,Wallonie
3930,Hamont-Achel,72037,HAMONT-ACHEL,1,Flandre
7321,Harchies,51009,BERNISSART,2,Wallonie
8530,Harelbeke,34013,HARELBEKE,1,Flandre
1130,Haren (Brussel),21004,BRUXELLES,3,Bruxelles
5541,Hastière-par-Delà,91142,HASTIERE,2,Wallonie
1461,Haut-Ittre,25044,ITTRE,2,Wallonie
7041,Havay,53084,QUEVY,2,Wallonie
7531,Havinnes,57081,TOURNAI,2,Wallonie
7021,Havré,53053,MONS,2,Wallonie
3940,Hechtel-Eksel,72038,HECHTEL-EKSEL,1,Flandre
5543,Heer,91142,HASTIERE,2,Wallonie
8551,Heestert,34042,ZWEVEGEM,1,Flandre
2801,Heffen,12025,MALINES,1,Flandre
2220,Heist-op-den-Berg,12014,HEIST-OP-DEN-BERG,1,Flandre
9450,Heldergem,41024,HAALTERT,1,Flandre
9571,Hemelveerdegem,45063,LIERDE,1,Flandre
2620,Hemiksem,11018,HEMIKSEM,1,Flandre
4841,Henri-Chapelle,63084,WELKENRAEDT,2,Wallonie
3971,Heppen,71034,BOURG-LEOPOLD,1,Flandre
4771,Heppenbach,63001,AMBLEVE,2,Wallonie
2270,Herenthout,13012,HERENTHOUT,1,Flandre
4728,Hergenrath,63040,LA CALAMINE,2,Wallonie
7742,Hérinnes-lez-Pecq,57062,PECQ,2,Wallonie
4681,Hermalle-sous-Argenteau,62079,OUPEYE,2,Wallonie
4480,Hermalle-sous-Huy,61080,ENGIS,2,Wallonie
1540,Herne,23032,HERNE,1,Flandre
7712,Herseaux,54007,MOUSCRON,2,Wallonie
4040,Herstal,62051,HERSTAL,2,Wallonie
3717,Herstappe,73028,HERSTAPPE,1,Flandre
3831,Herten,73098,WELLEN,1,Flandre
8501,Heule,34022,COURTRAI,1,Flandre
9070,Heusden (O.-Vl.),44013,DESTELBERGEN,1,Flandre
4802,Heusy,63079,VERVIERS,2,Wallonie
3191,Hever,24014,BOORTMEERBEEK,1,Flandre
3001,Heverlee,24062,LOUVAIN,1,Flandre
6984,Hives,83031,LA-ROCHE-EN-ARDENNE,2,Wallonie
2660,Hoboken (Antwerpen),11002,ANVERS,1,Flandre
4351,Hodeige,64063,REMICOURT,2,Wallonie
4162,Hody,61079,ANTHISNES,2,Wallonie
1560,Hoeilaart,23033,HOEILAART,1,Flandre
3746,Hoelbeek,73006,BILZEN,1,Flandre
3471,Hoeleden,24054,KORTENAKEN,1,Flandre
1981,Hofstade (Bt.),23096,ZEMST,1,Flandre
9308,Hofstade (O.-Vl.),41002,ALOST,1,Flandre
4342,Hognoul,62006,AWANS,2,Wallonie
4852,Hombourg,63088,PLOMBIERES,2,Wallonie
8830,Hooglede,36006,HOOGLEDE,1,Flandre
2320,Hoogstraten,13014,HOOGSTRATEN,1,Flandre
7301,Hornu,53014,BOUSSU,2,Wallonie
5563,Hour,91072,HOUYET,2,Wallonie
1476,Houtain-le-Val,25031,GENAPPE,2,Wallonie
4682,Houtain-Saint-Siméon,62079,OUPEYE,2,Wallonie
3530,Houthalen-Helchteren,72039,HOUTHALEN-HELCHTEREN,1,Flandre
7781,Houthem (Comines),54010,COMINES-WARNETON,2,Wallonie
2540,Hove,11021,HOVE,1,Flandre
7624,Howardries,57093,BRUNEHAUT,2,Wallonie
1654,Huizingen,23003,BEERSEL,1,Flandre
8531,Hulste,34013,HARELBEKE,1,Flandre
1851,Humbeek,23025,GRIMBERGEN,1,Flandre
8480,Ichtegem,35006,ICHTEGEM,1,Flandre
9472,Iddergem,41011,DENDERLEEUW,1,Flandre
8770,Ingelmunster,36007,INGELMUNSTER,1,Flandre
1041,International Press Center,21004,BRUXELLES,3,Bruxelles
1041,International Press Center,21004,BRUXELLES,3,Bruxelles
7801,Irchonwelz,51004,ATH,2,Wallonie
1701,Itterbeek,23016,DILBEEK,1,Flandre
1050,Ixelles,21009,IXELLES,3,Bruxelles
1051,Ixelles,21004,BRUXELLES,3,Bruxelles
1051,Ixelles,21004,BRUXELLES,3,Bruxelles
5354,Jallet,92097,OHEY,2,Wallonie
6810,Jamoigne,85007,CHINY,2,Wallonie
7012,Jemappes,53053,MONS,2,Wallonie
4101,Jemeppe-sur-Meuse,62096,SERAING,2,Wallonie
1090,Jette,21010,JETTE,3,Bruxelles
4650,Julémont,63035,HERVE,2,Wallonie
6040,Jumet (Charleroi),52011,CHARLEROI,2,Wallonie
6642,Juseret,82036,VAUX-SUR-SURE,2,Wallonie
8870,Kachtem,36008,IZEGEM,1,Flandre
3293,Kaggevinne,24020,DIEST,1,Flandre
2920,Kalmthout,11022,KALMTHOUT,1,Flandre
2950,Kapellen (Antw.),11023,KAPELLEN,1,Flandre
3381,Kapellen (Bt.),24137,GLABBEEK,1,Flandre
9970,Kaprijke,43007,KAPRIJKE,1,Flandre
8572,Kaster,34002,ANZEGEM,1,Flandre
3140,Keerbergen,24048,KEERBERGEN,1,Flandre
8956,Kemmel,33039,HEUVELLAND,1,Flandre
9451,Kerksken,41024,HAALTERT,1,Flandre
3472,Kersbeek-Miskom,24054,KORTENAKEN,1,Flandre
3010,Kessel-Lo (Leuven),24062,LOUVAIN,1,Flandre
4701,Kettenis,63023,EUPEN,2,Wallonie
1081,Koekelberg,21011,KOEKELBERG,3,Bruxelles
3582,Koersel,71004,BERINGEN,1,Flandre
7780,Komen-Waasten,54010,COMINES-WARNETON,2,Wallonie
8000,Koolkerke,31005,BRUGES,1,Flandre
8851,Koolskamp,37020,ARDOOIE,1,Flandre
3060,Korbeek-Dijle,24009,BERTEM,1,Flandre
3070,Kortenberg,24055,KORTENBERG,1,Flandre
3720,Kortessem,73040,KORTESSEM,1,Flandre
8500,Kortrijk,34022,COURTRAI,1,Flandre
1950,Kraainem,23099,KRAAINEM,1,Flandre
9770,Kruishoutem,45017,KRUISHOUTEM,1,Flandre
8520,Kuurne,34023,KUURNE,1,Flandre
4720,La Calamine,63040,LA CALAMINE,2,Wallonie
7611,La Glanerie,57072,RUMES,2,Wallonie
1310,La Hulpe,25050,LA HULPE,2,Wallonie
6980,La Roche-en-Ardenne,83031,LA-ROCHE-EN-ARDENNE,2,Wallonie
9270,Laarne,42010,LAARNE,1,Flandre
6821,Lacuisine,85011,FLORENVILLE,2,Wallonie
1020,Laken (Brussel),21004,BRUXELLES,3,Bruxelles
6111,Landelies,52048,MONTIGNY-LE-TILLEUL,2,Wallonie
3201,Langdorp,24001,AARSCHOT,1,Flandre
7800,Lanquesaint,51004,ATH,2,Wallonie
7622,Laplaigne,57093,BRUNEHAUT,2,Wallonie
4261,Latinne,64015,BRAIVES,2,Wallonie
6761,Latour,85045,VIRTON,2,Wallonie
6681,Lavacherie,82038,SAINTE-ODE,2,Wallonie
9050,Ledeberg (Gent),44021,GAND,1,Flandre
3061,Leefdaal,24009,BERTEM,1,Flandre
6142,Leernes,52022,FONTAINE-L£EVEQUE,2,Wallonie
2811,Leest,12025,MALINES,1,Flandre
8432,Leffinge,35011,MIDDELKERKE,1,Flandre
1502,Lembeek,23027,HAL,1,Flandre
9971,Lembeke,43007,KAPRIJKE,1,Flandre
8860,Lendelede,34025,LENDELEDE,1,Flandre
4250,Lens-Saint-Servais,64029,GEER,2,Wallonie
3970,Leopoldsburg,71034,BOURG-LEOPOLD,1,Flandre
6811,Les Bulles,85007,CHINY,2,Wallonie
7621,Lesdain,57093,BRUNEHAUT,2,Wallonie
7860,Lessines,55023,LESSINES,2,Wallonie
9521,Letterhoutem,41063,SINT-LIEVENS-HOUTEM,1,Flandre
3000,Leuven,24062,LOUVAIN,1,Flandre
7900,Leuze-en-Hainaut,57094,LEUZE-EN-HAINAUT,2,Wallonie
8810,Lichtervelde,36011,LICHTERVELDE,1,Flandre
1770,Liedekerke,23044,LIEDEKERKE,1,Flandre
4030,Liège,62063,LIEGE,2,Wallonie
2500,Lier,12021,LIERRE,1,Flandre
4990,Lierneux,63045,LIERNEUX,2,Wallonie
4042,Liers,62051,HERSTAL,2,Wallonie
4254,Ligney,64029,GEER,2,Wallonie
1428,Lillois-Witterzée,25014,BRAINE-L£ALLEUD,2,Wallonie
4830,Limbourg,63046,LIMBOURG,2,Wallonie
1342,Limelette,25121,OTTIGNIES-LOUVAIN-LA-NEUVE,2,Wallonie
6670,Limerlé,82037,GOUVY,2,Wallonie
4357,Limont,64023,DONCEEL,2,Wallonie
1630,Linkebeek,23100,LINKEBEEK,1,Flandre
2547,Lint,11025,LINT,1,Flandre
5501,Lisogne,91034,DINANT,2,Wallonie
6042,Lodelinsart,52011,CHARLEROI,2,Wallonie
8958,Loker,33039,HEUVELLAND,1,Flandre
9160,Lokeren,46014,LOKEREN,1,Flandre
3920,Lommel,72020,LOMMEL,1,Flandre
4783,Lommersweiler,63067,SAINT-VITH,2,Wallonie
6463,Lompret,56016,CHIMAY,2,Wallonie
6924,Lomprez,84075,WELLIN,2,Wallonie
4431,Loncin,62003,ANS,2,Wallonie
6688,Longchamps (Lux.),82005,BERTOGNE,2,Wallonie
1325,Longueville,25018,CHAUMONT-GISTOUX,2,Wallonie
4710,Lontzen,63048,LONTZEN,2,Wallonie
1651,Lot,23003,BEERSEL,1,Flandre
1471,Loupoigne,25031,GENAPPE,2,Wallonie
1348,Louvain-la-Neuve,25121,OTTIGNIES-LOUVAIN-LA-NEUVE,2,Wallonie
4141,Louveigné,62100,SPRIMONT,2,Wallonie
9920,Lovendegem,44036,LOVENDEGEM,1,Flandre
5101,Loyers,92094,NAMUR,2,Wallonie
3210,Lubbeek,24066,LUBBEEK,1,Flandre
6238,Luttre,52055,PONT-A-CELLES,2,Wallonie
9680,Maarke-Kerkem,45064,MAARKEDAL,1,Flandre
6663,Mabompré,82014,HOUFFALIZE,2,Wallonie
1830,Machelen (Bt.),23047,MACHELEN,1,Flandre
6591,Macon,56051,MOMIGNIES,2,Wallonie
6593,Macquenoise,56051,MOMIGNIES,2,Wallonie
5374,Maffe,91064,HAVELANGE,2,Wallonie
7810,Maffle,51004,ATH,2,Wallonie
4623,Magnée,62038,FLERON,2,Wallonie
9990,Maldegem,43010,MALDEGEM,1,Flandre
4960,Malmedy,63049,MALMEDY,2,Wallonie
7170,Manage,52043,MANAGE,2,Wallonie
4760,Manderfeld,63012,BULLANGE,2,Wallonie
5024,Marche-les-Dames,92094,NAMUR,2,Wallonie
7190,Marche-lez-Ecaussinnes,55050,ECAUSSINES,2,Wallonie
6030,Marchienne-au-Pont,52011,CHARLEROI,2,Wallonie
6001,Marcinelle,52011,CHARLEROI,2,Wallonie
6990,Marenne,83028,HOTTON,2,Wallonie
9030,Mariakerke (Gent),44021,GAND,1,Flandre
7522,Marquain,57081,TOURNAI,2,Wallonie
6630,Martelange,81013,MARTELANGE,2,Wallonie
3742,Martenslinde,73006,BILZEN,1,Flandre
5573,Martouzin-Neuville,91013,BEAURAING,2,Wallonie
6953,Masbourg,83040,NASSOGNE,2,Wallonie
7050,Masnuy-Saint-Pierre,53044,JURBISE,2,Wallonie
7534,Maulde,57081,TOURNAI,2,Wallonie
5032,Mazy,92142,GEMBLOUX,2,Wallonie
5372,Méan,91064,HAVELANGE,2,Wallonie
3391,Meensel-Kiezegem,24135,TIELT-WINGE,1,Flandre
2321,Meer,13014,HOOGSTRATEN,1,Flandre
3078,Meerbeek,24055,KORTENBERG,1,Flandre
9402,Meerbeke,41048,NINOVE,1,Flandre
2450,Meerhout,13021,MEERHOUT,1,Flandre
2328,Meerle,13014,HOOGSTRATEN,1,Flandre
1860,Meise,23050,MEISE,1,Flandre
3320,Meldert (Bt.),24041,HOEGAARDEN,1,Flandre
3560,Meldert (Limb.),71037,LUMMEN,1,Flandre
4633,Melen,62099,SOUMAGNE,2,Wallonie
9090,Melle,44040,MELLE,1,Flandre
6211,Mellet,52075,LES BONS VILLERS,2,Wallonie
4837,Membach,63004,BAELEN,2,Wallonie
6567,Merbes-Sainte-Marie,56049,MERBES-LE-CHATEAU,2,Wallonie
1785,Merchtem,23052,MERCHTEM,1,Flandre
8650,Merkem,32006,HOUTHULST,1,Flandre
2170,Merksem (Antwerpen),11002,ANVERS,1,Flandre
2330,Merksplas,13023,MERKSPLAS,1,Flandre
7822,Meslin-l'Evêque,51004,ATH,2,Wallonie
5560,Mesnil-Saint-Blaise,91072,HOUYET,2,Wallonie
8957,Messines,33016,MESSINES,1,Flandre
8760,Meulebeke,37007,MEULEBEKE,1,Flandre
7942,Mévergnies-lez-Lens,51012,BRUGELETTE,2,Wallonie
4770,Meyerode,63001,AMBLEVE,2,Wallonie
9992,Middelburg,43010,MALDEGEM,1,Flandre
8430,Middelkerke,35011,MIDDELKERKE,1,Flandre
5376,Miécret,91064,HAVELANGE,2,Wallonie
2322,Minderhout,13014,HOOGSTRATEN,1,Flandre
8552,Moen,34042,ZWEVEGEM,1,Flandre
9180,Moerbeke-Waas,44045,MOERBEKE,1,Flandre
9220,Moerzeke,42008,HAMME,1,Flandre
2400,Mol,13025,MOL,1,Flandre
3461,Molenbeek-Wersbeek,24008,BEKKEVOORT,1,Flandre
3294,Molenstede,24020,DIEST,1,Flandre
1730,Mollem,23002,ASSE,1,Flandre
6590,Momignies,56051,MOMIGNIES,2,Wallonie
6592,Monceau-Imbrechies,56051,MOMIGNIES,2,Wallonie
6031,Monceau-sur-Sambre,52011,CHARLEROI,2,Wallonie
7000,Mons,53053,MONS,2,Wallonie
4400,Mons-lez-Liège,62120,FLEMALLE,2,Wallonie
7870,Montignies-lez-Lens,53046,LENS,2,Wallonie
6061,Montignies-sur-Sambre,52011,CHARLEROI,2,Wallonie
6110,Montigny-le-Tilleul,52048,MONTIGNY-LE-TILLEUL,2,Wallonie
6674,Montleban,82037,GOUVY,2,Wallonie
7542,Mont-Saint-Aubert,57081,TOURNAI,2,Wallonie
7141,Mont-Sainte-Aldegonde,56087,MORLANWELZ,2,Wallonie
6540,Mont-Sainte-Geneviève,56044,LOBBES,2,Wallonie
1435,Mont-Saint-Guibert,25068,MONT-SAINT-GUIBERT,2,Wallonie
6032,Mont-sur-Marchienne,52011,CHARLEROI,2,Wallonie
9310,Moorsel,41002,ALOST,1,Flandre
8890,Moorslede,36012,MOORSLEDE,1,Flandre
7140,Morlanwelz-Mariemont,56087,MORLANWELZ,2,Wallonie
4607,Mortroux,62027,DALHEM,2,Wallonie
2640,Mortsel,11029,MORTSEL,1,Flandre
7543,Mourcourt,57081,TOURNAI,2,Wallonie
7700,Mouscron,54007,MOUSCRON,2,Wallonie
3891,Muizen (Limb.),71017,GINGELOM,1,Flandre
2812,Muizen (Mechelen),12025,MALINES,1,Flandre
7062,Naast,55040,SOIGNIES,2,Wallonie
6660,Nadrin,82014,HOUFFALIZE,2,Wallonie
6120,Nalinnes,56086,HAM-SUR-HEURE-NALINNES,2,Wallonie
5000,Namur,92094,NAMUR,2,Wallonie
6950,Nassogne,83040,NASSOGNE,2,Wallonie
5360,Natoye,91059,HAMOIS,2,Wallonie
9810,Nazareth,44048,NAZARETH,1,Flandre
1910,Nederokkerzeel,23038,KAMPENHOUT,1,Flandre
1120,Neder-Over-Heembeek (Bru.),21004,BRUXELLES,3,Bruxelles
9636,Nederzwalm-Hermelgem,45065,ZWALM,1,Flandre
3404,Neerlanden,24059,LANDEN,1,Flandre
9403,Neigem,41048,NINOVE,1,Flandre
1390,Nethen,25037,GREZ-DOICEAU,2,Wallonie
7063,Neufvilles,55040,SOIGNIES,2,Wallonie
4721,Neu-Moresnet,63040,LA CALAMINE,2,Wallonie
4121,Neuville-en-Condroz,62121,NEUPRE,2,Wallonie
2845,Niel,11030,NIEL,1,Flandre
3668,Niel-bij-As,71002,AS,1,Flandre
9320,Nieuwerkerken (Aalst),41002,ALOST,1,Flandre
8950,Nieuwkerke,33039,HEUVELLAND,1,Flandre
3221,Nieuwrode,24043,HOLSBEEK,1,Flandre
2560,Nijlen,12026,NIJLEN,1,Flandre
7020,Nimy,53053,MONS,2,Wallonie
1400,Nivelles,25072,NIVELLES,2,Wallonie
6831,Noirefontaine,84010,BOUILLON,2,Wallonie
9771,Nokere,45017,KRUISHOUTEM,1,Flandre
6851,Nollevaux,84050,PALISEUL,2,Wallonie
2200,Noorderwijk,13011,HERENTALS,1,Flandre
7022,Nouvelles,53053,MONS,2,Wallonie
9681,Nukerke,45064,MAARKEDAL,1,Flandre
7743,Obigies,57062,PECQ,2,Wallonie
1755,Oetingen,23024,GOOIK,1,Flandre
7911,Oeudeghien,51065,FRASNES-LEZ-ANVAING,2,Wallonie
7862,Ogy,55023,LESSINES,2,Wallonie
5350,Ohey,92097,OHEY,2,Wallonie
2250,Olen,13029,OLEN,1,Flandre
7866,Ollignies,55023,LESSINES,2,Wallonie
2491,Olmen,13003,BALEN,1,Flandre
4877,Olne,63057,OLNE,2,Wallonie
4252,Omal,64029,GEER,2,Wallonie
4540,Ombret,61003,AMAY,2,Wallonie
5520,Onhaye,91103,ONHAYE,2,Wallonie
2861,Onze-Lieve-Vrouw-Waver,12035,SINT-KATELIJNE-WAVER,1,Flandre
9041,Oostakker,44021,GAND,1,Flandre
9968,Oosteeklo,43002,ASSENEDE,1,Flandre
3945,Oostham,71069,HAM,1,Flandre
8780,Oostrozebeke,37010,OOSTROZEBEKE,1,Flandre
9931,Oostwinkel,44080,ZOMERGEM,1,Flandre
9255,Opdorp,42004,BUGGENHOUT,1,Flandre
3660,Opglabbeek,71047,OPGLABBEEK,1,Flandre
1421,Ophain-Bois-Seigneur-Isaac,25014,BRAINE-L£ALLEUD,2,Wallonie
1357,Opheylissem,25118,HELECINE,2,Wallonie
3640,Ophoven,72018,KINROOI,1,Flandre
3680,Opoeteren,72021,MAASEIK,1,Flandre
6852,Opont,84050,PALISEUL,2,Wallonie
3360,Opvelp,24011,BIERBEEK,1,Flandre
1745,Opwijk,23060,OPWIJK,1,Flandre
7501,Orcq,57081,TOURNAI,2,Wallonie
6880,Orgeo,84009,BERTRIX,2,Wallonie
7802,Ormeignies,51004,ATH,2,Wallonie
1350,Orp-le-Grand,25120,ORP-JAUCHE,2,Wallonie
6983,Ortho,83031,LA-ROCHE-EN-ARDENNE,2,Wallonie
1110,OTAN - NATO,21010,JETTE,3,Bruxelles
8553,Otegem,34042,ZWEVEGEM,1,Flandre
4210,Oteppe,61010,BURDINNE,2,Wallonie
4360,Otrange,64056,OREYE,2,Wallonie
1340,Ottignies-Louvain-la-Neuve,25121,OTTIGNIES-LOUVAIN-LA-NEUVE,2,Wallonie
1160,Oudergem,21002,AUDERGHEM,3,Bruxelles
3050,Oud-Heverlee,24086,OUD-HEVERLEE,1,Flandre
2360,Oud-Turnhout,13031,OUD-TURNHOUT,1,Flandre
4102,Ougrée,62096,SERAING,2,Wallonie
4680,Oupeye,62079,OUPEYE,2,Wallonie
9406,Outer,41048,NINOVE,1,Flandre
3321,Outgaarden,24041,HOEGAARDEN,1,Flandre
8582,Outrijve,34003,AVELGEM,1,Flandre
3090,Overijse,23062,OVERIJSE,1,Flandre
3900,Overpelt,72029,OVERPELT,1,Flandre
3583,Paal,71004,BERINGEN,1,Flandre
6850,Paliseul,84050,PALISEUL,2,Wallonie
9661,Parike,45059,BRAKEL,1,Flandre
3212,Pellenberg,24066,LUBBEEK,1,Flandre
1670,Pepingen,23064,PEPINGEN,1,Flandre
7640,Péronnes-lez-Antoing,57003,ANTOING,2,Wallonie
7600,Péruwelz,57064,PERUWELZ,2,Wallonie
5352,Perwez-Haillot,92097,OHEY,2,Wallonie
7850,Petit-Enghien,55010,ENGHIEN,2,Wallonie
5555,Petit-Fays,91015,BIEVRE,2,Wallonie
7181,Petit-Roeulx-lez-Nivelles,52063,SENEFFE,2,Wallonie
6692,Petit-Thier,82032,VIELSALM,2,Wallonie
7160,Piéton,52010,CHAPELLE-LEZ-HERLAIMONT,2,Wallonie
6240,Pironchamps,52018,FARCIENNES,2,Wallonie
8740,Pittem,37011,PITTEM,1,Flandre
4122,Plainevaux,62121,NEUPRE,2,Wallonie
1380,Plancenoit,25119,LASNE,2,Wallonie
7782,Ploegsteert,54010,COMINES-WARNETON,2,Wallonie
4850,Plombières,63088,PLOMBIERES,2,Wallonie
9880,Poeke,44001,AALTER,1,Flandre
8920,Poelkapelle,33040,LANGEMARK-POELKAPELLE,1,Flandre
9401,Pollare,41048,NINOVE,1,Flandre
5574,Pondrôme,91013,BEAURAING,2,Wallonie
2382,Poppel,13035,RAVELS,1,Flandre
6929,Porcheresse (Lux.),84016,DAVERDISSE,2,Wallonie
4171,Poulseur,62026,COMBLAIN-AU-PONT,2,Wallonie
5660,Presgaux,93014,COUVIN,2,Wallonie
2242,Pulderbos,11054,ZANDHOVEN,1,Flandre
2243,Pulle,11054,ZANDHOVEN,1,Flandre
2580,Putte,12029,PUTTE,1,Flandre
4610,Queue-du-Bois,62015,BEYNE-HEUSAY,2,Wallonie
7972,Quevaucamps,51008,BELOEIL,2,Wallonie
7040,Quévy-le-Petit,53084,QUEVY,2,Wallonie
7380,Quiévrain,53068,QUIEVRAIN,2,Wallonie
6792,Rachecourt,81004,AUBANGE,2,Wallonie
4287,Racour,64047,LINCENT,2,Wallonie
4730,Raeren,63061,RAEREN,2,Wallonie
6532,Ragnies,56078,THUIN,2,Wallonie
1367,Ramillies,25122,RAMILLIES,2,Wallonie
1880,Ramsdonk,23039,KAPELLE-OP-DEN-BOS,1,Flandre
2230,Ramsel,13013,HERSELT,1,Flandre
8301,Ramskapelle (Knokke-Heist),31043,KNOKKE-HEIST,1,Flandre
6043,Ransart,52011,CHARLEROI,2,Wallonie
3470,Ransberg,24054,KORTENAKEN,1,Flandre
2520,Ranst,11035,RANST,1,Flandre
2380,Ravels,13035,RAVELS,1,Flandre
7804,Rebaix,51004,ATH,2,Wallonie
1430,Rebecq-Rognon,25123,REBECQ,2,Wallonie
3621,Rekem,73042,LANAKEN,1,Flandre
8930,Rekkem,34027,MENIN,1,Flandre
3791,Remersdaal,73109,FOURONS,1,Flandre
4350,Remicourt,64063,REMICOURT,2,Wallonie
6987,Rendeux,83044,RENDEUX,2,Wallonie
8647,Reninge,32030,LO-RENINGE,1,Flandre
8970,Reningelst,33021,POPERINGE,1,Flandre
3950,Reppel,72003,BOCHOLT,1,Flandre
7134,Ressaix,56011,BINCHE,2,Wallonie
9551,Ressegem,41027,HERZELE,1,Flandre
2470,Retie,13036,RETIE,1,Flandre
4621,Retinne,62038,FLERON,2,Wallonie
4790,Reuland,63087,BURG-REULAND,2,Wallonie
6464,Rièzes,56016,CHIMAY,2,Wallonie
2310,Rijkevorsel,13037,RIJKEVORSEL,1,Flandre
2820,Rijmenam,12005,BONHEIDEN,1,Flandre
3202,Rillaar,24001,AARSCHOT,1,Flandre
5170,Rivière,92101,PROFONDEVILLE,2,Wallonie
1330,Rixensart,25091,RIXENSART,2,Wallonie
6830,Rochehaut,84010,BOUILLON,2,Wallonie
4761,Rocherath,63012,BULLANGE,2,Wallonie
4000,Rocourt,62063,LIEGE,2,Wallonie
8972,Roesbrugge-Haringe,33021,POPERINGE,1,Flandre
7387,Roisin,53083,HONNELLES,2,Wallonie
8510,Rollegem,34022,COURTRAI,1,Flandre
4624,Romsée,62038,FLERON,2,Wallonie
7623,Rongy,57093,BRUNEHAUT,2,Wallonie
9600,Ronse,45041,RENAIX,1,Flandre
9932,Ronsele,44080,ZOMERGEM,1,Flandre
6250,Roselies,52074,AISEAU-PRESLES,2,Wallonie
1331,Rosières,25091,RIXENSART,2,Wallonie
4257,Rosoux-Crenwick,64008,BERLOZ,2,Wallonie
4120,Rotheux-Rimière,62121,NEUPRE,2,Wallonie
3110,Rotselaar,24094,ROTSELAAR,1,Flandre
7601,Roucourt,57064,PERUWELZ,2,Wallonie
6044,Roux,52011,CHARLEROI,2,Wallonie
1315,Roux-Miroir,25043,INCOURT,2,Wallonie
2870,Ruisbroek (Antw.),12030,PUURS,1,Flandre
1601,Ruisbroek (Bt.),23077,SINT-PIETERS-LEEUW,1,Flandre
8755,Ruiselede,37012,RUISELEDE,1,Flandre
6724,Rulles,85046,HABAY,2,Wallonie
8800,Rumbeke,36015,ROULERS,1,Flandre
7610,Rumes,57072,RUMES,2,Wallonie
7540,Rumillies,57081,TOURNAI,2,Wallonie
3454,Rummen,24028,GEETBETS,1,Flandre
9150,Rupelmonde,46013,KRUIBEKE,1,Flandre
7750,Russeignies,57095,MONT-DE-L£ENCLUS,2,Wallonie
3798,'s Gravenvoeren,73109,FOURONS,1,Flandre
7010,S.H.A.P.E. Belgique,53053,MONS,2,Wallonie
6221,Saint-Amand,52021,FLEURUS,2,Wallonie
4606,Saint-André,62027,DALHEM,2,Wallonie
5620,Saint-Aubin,93022,FLORENNES,2,Wallonie
7034,Saint-Denis (Ht.),53053,MONS,2,Wallonie
5081,Saint-Denis-Bovesse,92141,LA BRUYERE,2,Wallonie
6820,Sainte-Cécile,85011,FLORENVILLE,2,Wallonie
4470,Saint-Georges-sur-Meuse,64065,SAINT-GEORGES-SUR-MEUSE,2,Wallonie
5640,Saint-Gérard,92087,METTET,2,Wallonie
1450,Saint-Géry,25117,CHASTRE,2,Wallonie
7330,Saint-Ghislain,53070,SAINT-GHISLAIN,2,Wallonie
7730,Saint-Léger (Ht.),57027,ESTAIMPUIS,2,Wallonie
6747,Saint-Léger (Lux.),85034,SAINT-LEGER,2,Wallonie
5003,Saint-Marc,92094,NAMUR,2,Wallonie
6762,Saint-Mard,85045,VIRTON,2,Wallonie
6800,Saint-Pierre,84077,LIBRAMONT-CHEVIGNY,2,Wallonie
4672,Saint-Remy (Lg.),62119,BLEGNY,2,Wallonie
7912,Saint-Sauveur,51065,FRASNES-LEZ-ANVAING,2,Wallonie
5002,Saint-Servais,92094,NAMUR,2,Wallonie
7030,Saint-Symphorien,53053,MONS,2,Wallonie
4671,Saive,62119,BLEGNY,2,Wallonie
6982,Samrée,83031,LA-ROCHE-EN-ARDENNE,2,Wallonie
4780,Sankt Vith,63067,SAINT-VITH,2,Wallonie
7080,Sars-la-Bruyère,53028,FRAMERIES,2,Wallonie
6542,Sars-la-Buissière,56044,LOBBES,2,Wallonie
5330,Sart-Bernard,92006,ASSESSE,2,Wallonie
4845,Sart-lez-Spa,63038,JALHAY,2,Wallonie
5030,Sauvenière,92142,GEMBLOUX,2,Wallonie
1030,Schaerbeek,21015,SCHAERBEEK,3,Bruxelles
3732,Schalkhoven,73032,HOESELT,1,Flandre
5364,Schaltin,91059,HAMOIS,2,Wallonie
9820,Schelderode,44043,MERELBEKE,1,Flandre
9860,Scheldewindeke,44052,OOSTERZELE,1,Flandre
2627,Schelle,11038,SCHELLE,1,Flandre
1703,Schepdaal,23016,DILBEEK,1,Flandre
3270,Scherpenheuvel-Zichem,24134,MONTAIGU-ZICHEM,1,Flandre
2970,Schilde,11039,SCHILDE,1,Flandre
4782,Schönberg,63067,SAINT-VITH,2,Wallonie
9688,Schorisse,45064,MAARKEDAL,1,Flandre
2900,Schoten,11040,SCHOTEN,1,Flandre
2223,Schriek,12014,HEIST-OP-DEN-BERG,1,Flandre
3540,Schulen,71024,HERCK-LA-VILLE,1,Flandre
5361,Scy,91059,HAMOIS,2,Wallonie
6781,Sélange,81015,MESSANCY,2,Wallonie
6596,Seloignes,56051,MOMIGNIES,2,Wallonie
7180,Seneffe,52063,SENEFFE,2,Wallonie
6832,Sensenruth,84010,BOUILLON,2,Wallonie
4100,Seraing,62096,SERAING,2,Wallonie
5521,Serville,91103,ONHAYE,2,Wallonie
6750,Signeulx,85026,MUSSON,2,Wallonie
8340,Sijsele,31006,DAMME,1,Flandre
9112,Sinaai-Waas,46021,SAINT-NICOLAS,1,Flandre
1082,Sint-Agatha-Berchem,21003,BERCHEM-SAINTE-AGATHE,3,Bruxelles
3040,Sint-Agatha-Rode,24045,HULDENBERG,1,Flandre
2890,Sint-Amands,12034,SINT-AMANDS,1,Flandre
9040,Sint-Amandsberg (Gent),44021,GAND,1,Flandre
8554,Sint-Denijs,34042,ZWEVEGEM,1,Flandre
9051,Sint-Denijs-Westrem,44021,GAND,1,Flandre
8793,Sint-Eloois-Vijve,34040,WAREGEM,1,Flandre
8880,Sint-Eloois-Winkel,36010,LEDEGEM,1,Flandre
1640,Sint-Genesius-Rode,23101,RHODE-SAINT-GENESE,1,Flandre
1060,Sint-Gillis,21013,SAINT-GILLES,3,Bruxelles
9200,Sint-Gillis-bij-Dendermonde,42006,TERMONDE,1,Flandre
3910,Sint-Huibrechts-Lille,72025,NEERPELT,1,Flandre
8900,Sint-Jan,33011,YPRES,1,Flandre
9982,Sint-Jan-in-Eremo,43014,SINT-LAUREINS,1,Flandre
1080,Sint-Jans-Molenbeek,21012,MOLENBEEK-SAINT-JEAN,3,Bruxelles
1210,Sint-Joost-ten-Node,21014,SAINT-JOSSE-TEN-NOODE,3,Bruxelles
8730,Sint-Joris (Beernem),31003,BEERNEM,1,Flandre
8620,Sint-Joris (Nieuwpoort),38016,NIEUPORT,1,Flandre
3051,Sint-Joris-Weert,24086,OUD-HEVERLEE,1,Flandre
2860,Sint-Katelijne-Waver,12035,SINT-KATELIJNE-WAVER,1,Flandre
1742,Sint-Katherina-Lombeek,23086,TERNAT,1,Flandre
8310,Sint-Kruis (Brugge),31005,BRUGES,1,Flandre
9042,Sint-Kruis-Winkel,44021,GAND,1,Flandre
3500,Sint-Lambrechts-Herk,71022,HASSELT,1,Flandre
9980,Sint-Laureins,43014,SINT-LAUREINS,1,Flandre
2960,Sint-Lenaarts,11009,BRECHT,1,Flandre
9981,Sint-Margriete,43014,SINT-LAUREINS,1,Flandre
9667,Sint-Maria-Horebeke,45062,HOREBEKE,1,Flandre
9570,Sint-Maria-Lierde,45063,LIERDE,1,Flandre
9830,Sint-Martens-Latem,44064,SINT-MARTENS-LATEM,1,Flandre
1750,Sint-Martens-Lennik,23104,LENNIK,1,Flandre
9572,Sint-Martens-Lierde,45063,LIERDE,1,Flandre
8200,Sint-Michiels,31005,BRUGES,1,Flandre
9100,Sint-Niklaas,46021,SAINT-NICOLAS,1,Flandre
9170,Sint-Pauwels,46020,SINT-GILLIS-WAAS,1,Flandre
1541,Sint-Pieters-Kapelle (Bt.),23032,HERNE,1,Flandre
1600,Sint-Pieters-Leeuw,23077,SINT-PIETERS-LEEUW,1,Flandre
3220,Sint-Pieters-Rode,24043,HOLSBEEK,1,Flandre
3792,Sint-Pieters-Voeren,73109,FOURONS,1,Flandre
8690,Sint-Rijkers,38002,ALVERINGEM,1,Flandre
1932,Sint-Stevens-Woluwe,23094,ZAVENTEM,1,Flandre
1700,Sint-Ulriks-Kapelle,23016,DILBEEK,1,Flandre
4851,Sippenaeken,63088,PLOMBIERES,2,Wallonie
7332,Sirault,53070,SAINT-GHISLAIN,2,Wallonie
6470,Sivry-Rance,56088,SIVRY-RANCE,2,Wallonie
9940,Sleidinge,44019,EVERGEM,1,Flandre
4450,Slins,62060,JUPRELLE,2,Wallonie
7060,Soignies,55040,SOIGNIES,2,Wallonie
4861,Soiron,63058,PEPINSTER,2,Wallonie
6560,Solre-sur-Sambre,56022,ERQUELINNES,2,Wallonie
5340,Sorée,92054,GESVES,2,Wallonie
5333,Sorinne-la-Longue,92006,ASSESSE,2,Wallonie
5503,Sorinnes,91034,DINANT,2,Wallonie
4920,Sougné-Remouchamps,62009,AYWAILLE,2,Wallonie
6182,Souvret,52015,COURCELLES,2,Wallonie
5590,Sovet,91030,CINEY,2,Wallonie
6997,Soy,83013,EREZEE,2,Wallonie
5150,Soye (Nam.),92045,FLOREFFE,2,Wallonie
4900,Spa,63072,SPA,2,Wallonie
3510,Spalbeek,71022,HASSELT,1,Flandre
8433,Spermalie,35011,MIDDELKERKE,1,Flandre
7032,Spiennes,53053,MONS,2,Wallonie
8587,Spiere-Helkijn,34043,ESPIERRES-HELCHIN,1,Flandre
4140,Sprimont,62100,SPRIMONT,2,Wallonie
5190,Spy,92140,JEMEPPE-SUR-SAMBRE,2,Wallonie
2940,Stabroek,11044,STABROEK,1,Flandre
7973,Stambruges,51008,BELOEIL,2,Wallonie
5646,Stave,92087,METTET,2,Wallonie
8691,Stavele,38002,ALVERINGEM,1,Flandre
4970,Stavelot,63073,STAVELOT,2,Wallonie
1840,Steenhuffel,23045,LONDERZEEL,1,Flandre
7090,Steenkerque (Ht.),55004,BRAINE-LE-COMTE,2,Wallonie
1820,Steenokkerzeel,23081,STEENOKKERZEEL,1,Flandre
9190,Stekene,46024,STEKENE,1,Flandre
4801,Stembert,63079,VERVIERS,2,Wallonie
1933,Sterrebeek,23094,ZAVENTEM,1,Flandre
3512,Stevoort,71022,HASSELT,1,Flandre
3650,Stokkem,72041,DILSEN-STOKKEM,1,Flandre
3511,Stokrooie,71022,HASSELT,1,Flandre
4987,Stoumont,63075,STOUMONT,2,Wallonie
6887,Straimont,84029,HERBEUMONT,2,Wallonie
6511,Strée (Ht.),56005,BEAUMONT,2,Wallonie
7110,Strépy-Bracquegnies,55022,LA LOUVIERE,2,Wallonie
1760,Strijtem,23097,ROOSDAAL,1,Flandre
1853,Strombeek-Bever,23025,GRIMBERGEN,1,Flandre
6812,Suxy,85007,CHINY,2,Wallonie
6661,Tailles,82014,HOUFFALIZE,2,Wallonie
7618,Taintignies,57072,RUMES,2,Wallonie
4163,Tavier,61079,ANTHISNES,2,Wallonie
6662,Tavigny,82014,HOUFFALIZE,2,Wallonie
6927,Tellin,84068,TELLIN,2,Wallonie
7520,Templeuve,57081,TOURNAI,2,Wallonie
6970,Tenneville,83049,TENNEVILLE,2,Wallonie
1790,Teralfene,23105,AFFLIGEM,1,Flandre
2840,Terhagen,11037,RUMST,1,Flandre
6813,Termes,85007,CHINY,2,Wallonie
1740,Ternat,23086,TERNAT,1,Flandre
7333,Tertre,53070,SAINT-GHISLAIN,2,Wallonie
4560,Terwagne,61012,CLAVIER,2,Wallonie
3980,Tessenderlo,71057,TESSENDERLO,1,Flandre
3272,Testelt,24134,MONTAIGU-ZICHEM,1,Flandre
3793,Teuven,73109,FOURONS,1,Flandre
4910,Theux,63076,THEUX,2,Wallonie
7901,Thieulain,57094,LEUZE-EN-HAINAUT,2,Wallonie
7061,Thieusies,55040,SOIGNIES,2,Wallonie
4890,Thimister-Clermont,63089,THIMISTER-CLERMONT,2,Wallonie
7533,Thimougies,57081,TOURNAI,2,Wallonie
1402,Thines,25072,NIVELLES,2,Wallonie
6500,Thirimont,56005,BEAUMONT,2,Wallonie
4791,Thommen,63087,BURG-REULAND,2,Wallonie
1360,Thorembais-Saint-Trond,25084,PERWEZ,2,Wallonie
7830,Thoricourt,55039,SILLY,2,Wallonie
6536,Thuillies,56078,THUIN,2,Wallonie
6530,Thuin,56078,THUIN,2,Wallonie
7350,Thulin,53039,HENSIES,2,Wallonie
5621,Thy-le-Bauduin,93022,FLORENNES,2,Wallonie
5651,Thy-le-Château,93088,WALCOURT,2,Wallonie
5502,Thynes,91034,DINANT,2,Wallonie
4367,Thys,64021,CRISNEE,2,Wallonie
8573,Tiegem,34002,ANZEGEM,1,Flandre
2460,Tielen,13017,KASTERLEE,1,Flandre
9140,Tielrode,46025,TAMISE,1,Flandre
8700,Tielt,37015,TIELT,1,Flandre
3390,Tielt-Winge,24135,TIELT-WINGE,1,Flandre
4630,Tignée,62099,SOUMAGNE,2,Wallonie
4500,Tihange,61031,HUY,2,Wallonie
4130,Tilff,62032,ESNEUX,2,Wallonie
6680,Tillet,82038,SAINTE-ODE,2,Wallonie
4420,Tilleur,62093,SAINT-NICOLAS,2,Wallonie
5380,Tillier,92138,FERNELMONT,2,Wallonie
4557,Tinlot,61081,TINLOT,2,Wallonie
6637,Tintange,82009,FAUVILLERS,2,Wallonie
6730,Tintigny,85039,TINTIGNY,2,Wallonie
6700,Toernich,81001,ARLON,2,Wallonie
3960,Tongerlo (Limb.),72004,BREE,1,Flandre
7951,Tongre-Notre-Dame,51014,CHIEVRES,2,Wallonie
7950,Tongre-Saint-Martin,51014,CHIEVRES,2,Wallonie
5140,Tongrinne,92114,SOMBREFFE,2,Wallonie
6717,Tontelange,81003,ATTERT,2,Wallonie
6767,Torgny,85047,ROUVROY,2,Wallonie
8820,Torhout,31033,TORHOUT,1,Flandre
4263,Tourinne (Lg.),64015,BRAIVES,2,Wallonie
1320,Tourinnes-la-Grosse,25005,BEAUVECHAIN,2,Wallonie
7500,Tournai,57081,TOURNAI,2,Wallonie
6840,Tournay,84043,NEUFCHATEAU,2,Wallonie
6183,Trazegnies,52015,COURCELLES,2,Wallonie
4670,Trembleur,62119,BLEGNY,2,Wallonie
3120,Tremelo,24109,TREMELO,1,Flandre
7100,Trivières,55022,LA LOUVIERE,2,Wallonie
4870,Trooz,62122,TROOZ,2,Wallonie
1480,Tubize,25105,TUBIZE,2,Wallonie
2300,Turnhout,13040,TURNHOUT,1,Flandre
3631,Uikhoven,73107,MAASMECHELEN,1,Flandre
9290,Uitbergen,42003,BERLARE,1,Flandre
8370,Uitkerke,31004,BLANKENBERGE,1,Flandre
1180,Ukkel,21016,UCCLE,3,Bruxelles
3832,Ulbeek,73098,WELLEN,1,Flandre
9910,Ursel,44029,KNESSELARE,1,Flandre
3054,Vaalbeek,24086,OUD-HEVERLEE,1,Flandre
6741,Vance,85009,ETALLE,2,Wallonie
7536,Vaulx (Tournai),57081,TOURNAI,2,Wallonie
6462,Vaulx-lez-Chimay,56016,CHIMAY,2,Wallonie
6960,Vaux-Chavanne,83055,MANHAY,2,Wallonie
4051,Vaux-sous-Chèvremont,62022,CHAUDFONTAINE,2,Wallonie
6640,Vaux-sur-Sure,82036,VAUX-SUR-SURE,2,Wallonie
5020,Vedrin,92094,NAMUR,2,Wallonie
2431,Veerle,13053,LAAKDAL,1,Flandre
7760,Velaines,57018,CELLES,2,Wallonie
5060,Velaine-sur-Sambre,92137,SAMBREVILLE,2,Wallonie
3620,Veldwezelt,73042,LANAKEN,1,Flandre
7120,Vellereille-le-Sec,56085,ESTINNES,2,Wallonie
3806,Velm,71053,SAINT-TROND,1,Flandre
4460,Velroux,62118,GRACE-HOLLOGNE,2,Wallonie
6440,Vergnies,56029,FROID-CHAPELLE,2,Wallonie
4537,Verlaine,61063,VERLAINE,2,Wallonie
5370,Verlée,91064,HAVELANGE,2,Wallonie
9130,Verrebroek,46003,BEVEREN,1,Flandre
4800,Verviers,63079,VERVIERS,2,Wallonie
6870,Vesqueville,84059,SAINT-HUBERT,2,Wallonie
3870,Veulen,73022,HEERS,1,Flandre
5300,Vezin,92003,ANDENNE,2,Wallonie
7538,Vezon,57081,TOURNAI,2,Wallonie
8570,Vichte,34002,ANZEGEM,1,Flandre
6690,Vielsalm,82032,VIELSALM,2,Wallonie
4317,Viemme,64076,FAIMES,2,Wallonie
4577,Vierset-Barse,61041,MODAVE,2,Wallonie
6230,Viesville,52055,PONT-A-CELLES,2,Wallonie
1472,Vieux-Genappe,25031,GENAPPE,2,Wallonie
6890,Villance,84035,LIBIN,2,Wallonie
4260,Ville-en-Hesbaye,64015,BRAIVES,2,Wallonie
7322,Ville-Pommeroeul,51009,BERNISSART,2,Wallonie
7334,Villerot,53070,SAINT-GHISLAIN,2,Wallonie
4161,Villers-aux-Tours,61079,ANTHISNES,2,Wallonie
5630,Villers-Deux-Eglises,93010,CERFONTAINE,2,Wallonie
6823,Villers-Devant-Orval,85011,FLORENVILLE,2,Wallonie
6769,Villers-la-Loue,85024,MEIX-DEVANT-VIRTON,2,Wallonie
6460,Villers-la-Tour,56016,CHIMAY,2,Wallonie
1495,Villers-la-Ville,25107,VILLERS-LA-VILLE,2,Wallonie
4340,Villers-l'Evêque,62006,AWANS,2,Wallonie
6280,Villers-Poterie,52025,GERPINNES,2,Wallonie
7812,Villers-Saint-Amand,51004,ATH,2,Wallonie
6941,Villers-Sainte-Gertrude,83012,DURBUY,2,Wallonie
7031,Villers-Saint-Ghislain,53053,MONS,2,Wallonie
4453,Villers-Saint-Siméon,62060,JUPRELLE,2,Wallonie
6740,Villers-sur-Semois,85009,ETALLE,2,Wallonie
7070,Ville-sur-Haine (Le Roeulx),55035,LE ROEULX,2,Wallonie
1800,Vilvoorde,23088,VILVORDE,1,Flandre
9921,Vinderhoute,44036,LOVENDEGEM,1,Flandre
6461,Virelles,56016,CHIMAY,2,Wallonie
1460,Virginal-Samme,25044,ITTRE,2,Wallonie
5670,Viroinval,93090,VIROINVAL,2,Wallonie
6760,Virton,85045,VIRTON,2,Wallonie
4600,Visé,62108,VISE,2,Wallonie
3300,Vissenaken,24107,TIRLEMONT,1,Flandre
5070,Vitrival,92048,FOSSES-LA-VILLE,2,Wallonie
4683,Vivegnis,62079,OUPEYE,2,Wallonie
6833,Vivy,84010,BOUILLON,2,Wallonie
8908,Vlamertinge,33011,YPRES,1,Flandre
9420,Vlekkem,41082,ERPE-MERE,1,Flandre
1602,Vlezenbeek,23077,SINT-PIETERS-LEEUW,1,Flandre
3724,Vliermaal,73040,KORTESSEM,1,Flandre
3721,Vliermaalroot,73040,KORTESSEM,1,Flandre
2340,Vlimmeren,13004,BEERSE,1,Flandre
8421,Vlissegem,35029,DE HAAN,1,Flandre
7880,Vloesberg,51019,FLOBECQ,2,Wallonie
5600,Vodecée,93056,PHILIPPEVILLE,2,Wallonie
5680,Vodelée,93018,DOISCHE,2,Wallonie
3790,Voeren,73109,FOURONS,1,Flandre
1570,Vollezele,23023,GAMMERAGES,1,Flandre
9400,Voorde,41048,NINOVE,1,Flandre
3840,Voort,73009,LOOZ,1,Flandre
4347,Voroux-Goreux,64025,FEXHE-LE-HAUT-CLOCHER,2,Wallonie
4451,Voroux-lez-Liers,62060,JUPRELLE,2,Wallonie
2290,Vorselaar,13044,VORSELAAR,1,Flandre
3890,Vorsen,71017,GINGELOM,1,Flandre
1190,Vorst,21007,FOREST,3,Bruxelles
2430,Vorst (Kempen),13053,LAAKDAL,1,Flandre
2350,Vosselaar,13046,VOSSELAAR,1,Flandre
9850,Vosselare,44049,NEVELE,1,Flandre
3080,Vossem,24104,TERVUREN,1,Flandre
4041,Vottem,62051,HERSTAL,2,Wallonie
9120,Vrasene,46003,BEVEREN,1,Flandre
2531,Vremde,11004,BOECHOUT,1,Flandre
5550,Vresse-sur-Semois,91143,VRESSE-SUR-SEMOIS,2,Wallonie
3630,Vucht,73107,MAASMECHELEN,1,Flandre
9890,Vurste,44020,GAVERE,1,Flandre
4570,Vyle-et-Tharoul,61039,MARCHIN,2,Wallonie
3473,Waanrode,24054,KORTENAKEN,1,Flandre
8020,Waardamme,31022,OOSTKAMP,1,Flandre
2550,Waarloos,11024,KONTICH,1,Flandre
8581,Waarmaarde,34003,AVELGEM,1,Flandre
9950,Waarschoot,44072,WAARSCHOOT,1,Flandre
9250,Waasmunster,42023,WAASMUNSTER,1,Flandre
9185,Wachtebeke,44073,WACHTEBEKE,1,Flandre
7971,Wadelincourt,51008,BELOEIL,2,Wallonie
6223,Wagnelée,52021,FLEURUS,2,Wallonie
6900,Waha,83034,MARCHE-EN-FAMENNE,2,Wallonie
5377,Waillet,91120,SOMME-LEUZE,2,Wallonie
8720,Wakken,37002,DENTERGEM,1,Flandre
2800,Walem,12025,MALINES,1,Flandre
1457,Walhain-Saint-Paul,25124,WALHAIN,2,Wallonie
4711,Walhorn,63048,LONTZEN,2,Wallonie
3740,Waltwilder,73006,BILZEN,1,Flandre
1741,Wambeek,23086,TERNAT,1,Flandre
4020,Wandre,62063,LIEGE,2,Wallonie
6224,Wanfercée-Baulet,52021,FLEURUS,2,Wallonie
3400,Wange,24059,LANDEN,1,Flandre
6220,Wangenies,52021,FLEURUS,2,Wallonie
5564,Wanlin,91072,HOUYET,2,Wallonie
4980,Wanne,63086,TROIS-PONTS,2,Wallonie
7861,Wannebecq,55023,LESSINES,2,Wallonie
9772,Wannegem-Lede,45017,KRUISHOUTEM,1,Flandre
4280,Wansin,64034,HANNUT,2,Wallonie
4520,Wanze,61072,WANZE,2,Wallonie
9340,Wanzele,41034,LEDE,1,Flandre
7548,Warchin,57081,TOURNAI,2,Wallonie
7740,Warcoing,57062,PECQ,2,Wallonie
6600,Wardin,82003,BASTOGNE,2,Wallonie
8790,Waregem,34040,WAREGEM,1,Flandre
4300,Waremme,64074,WAREMME,2,Wallonie
5310,Waret-la-Chaussée,92035,EGHEZEE,2,Wallonie
4217,Waret-l'Evêque,61028,HERON,2,Wallonie
5080,Warisoulx,92141,LA BRUYERE,2,Wallonie
5537,Warnant,91005,ANHEE,2,Wallonie
4530,Warnant-Dreye,61068,VILLERS-LE-BOUILLET,2,Wallonie
7784,Warneton,54010,COMINES-WARNETON,2,Wallonie
4608,Warsage,62027,DALHEM,2,Wallonie
4590,Warzée,61048,OUFFET,2,Wallonie
7340,Wasmes,53082,COLFONTAINE,2,Wallonie
7604,Wasmes-Audemez-Briffoeil,57064,PERUWELZ,2,Wallonie
7390,Wasmuel,53065,QUAREGNON,2,Wallonie
4219,Wasseiges,64075,WASSEIGES,2,Wallonie
1410,Waterloo,25110,WATERLOO,2,Wallonie
1170,Watermael-Boitsfort,21017,WATERMAEL-BOITSFORT,3,Bruxelles
9988,Watervliet,43014,SINT-LAUREINS,1,Flandre
8978,Watou,33021,POPERINGE,1,Flandre
7910,Wattripont,51065,FRASNES-LEZ-ANVAING,2,Wallonie
7131,Waudrez,56011,BINCHE,2,Wallonie
5540,Waulsort,91142,HASTIERE,2,Wallonie
1440,Wauthier-Braine,25015,BRAINE-LE-CHATEAU,2,Wallonie
1300,Wavre,25112,WAVRE,2,Wallonie
5580,Wavreille,91114,ROCHEFORT,2,Wallonie
6210,Wayaux,52075,LES BONS VILLERS,2,Wallonie
1474,Ways,25031,GENAPPE,2,Wallonie
3290,Webbekom,24020,DIEST,1,Flandre
2275,Wechelderzande,13019,LILLE,1,Flandre
2381,Weelde,13035,RAVELS,1,Flandre
1982,Weerde,23096,ZEMST,1,Flandre
2880,Weert,12007,BORNEM,1,Flandre
4860,Wegnez,63058,PEPINSTER,2,Wallonie
5523,Weillen,91103,ONHAYE,2,Wallonie
4950,Weismes,63080,WAIMES,2,Wallonie
9700,Welden,45035,AUDENARDE,1,Flandre
4840,Welkenraedt,63084,WELKENRAEDT,2,Wallonie
9473,Welle,41011,DENDERLEEUW,1,Flandre
3830,Wellen,73098,WELLEN,1,Flandre
6920,Wellin,84075,WELLIN,2,Wallonie
1780,Wemmel,23102,WEMMEL,1,Flandre
8420,Wenduine,35029,DE HAAN,1,Flandre
3118,Werchter,24094,ROTSELAAR,1,Flandre
6940,Wéris,83012,DURBUY,2,Wallonie
3730,Werm,73032,HOESELT,1,Flandre
8940,Wervik,33029,WERVIK,1,Flandre
3150,Wespelaar,24033,HAACHT,1,Flandre
8434,Westende,35011,MIDDELKERKE,1,Flandre
8300,Westkapelle,31043,KNOKKE-HEIST,1,Flandre
8460,Westkerke,35014,OUDENBURG,1,Flandre
2390,Westmalle,11057,MALLE,1,Flandre
2235,Westmeerbeek,13016,HULSHOUT,1,Flandre
8954,Westouter,33039,HEUVELLAND,1,Flandre
8840,Westrozebeke,36019,STADEN,1,Flandre
9230,Wetteren,42025,WETTEREN,1,Flandre
8560,Wevelgem,34041,WEVELGEM,1,Flandre
3111,Wezemaal,24094,ROTSELAAR,1,Flandre
1970,Wezembeek-Oppem,23103,WEZEMBEEK-OPPEM,1,Flandre
3401,Wezeren,24059,LANDEN,1,Flandre
7620,Wez-Velvain,57093,BRUNEHAUT,2,Wallonie
6666,Wibrin,82014,HOUFFALIZE,2,Wallonie
9260,Wichelen,42026,WICHELEN,1,Flandre
3700,Widooie (Haren),73083,TONGRES,1,Flandre
2222,Wiekevorst,12014,HEIST-OP-DEN-BERG,1,Flandre
8710,Wielsbeke,37017,WIELSBEKE,1,Flandre
5100,Wierde,92094,NAMUR,2,Wallonie
7608,Wiers,57064,PERUWELZ,2,Wallonie
5571,Wiesme,91013,BEAURAING,2,Wallonie
9280,Wieze,42011,LEBBEKE,1,Flandre
7370,Wihéries,53020,DOUR,2,Wallonie
4452,Wihogne,62060,JUPRELLE,2,Wallonie
3990,Wijchmaal,72030,PEER,1,Flandre
3850,Wijer,71045,NIEUWERKERKEN,1,Flandre
3018,Wijgmaal (Brabant),24062,LOUVAIN,1,Flandre
2110,Wijnegem,11050,WIJNEGEM,1,Flandre
3670,Wijshagen,72040,MEEUWEN-GRUITRODE,1,Flandre
8953,Wijtschate,33039,HEUVELLAND,1,Flandre
3803,Wilderen,71053,SAINT-TROND,1,Flandre
7904,Willaupuis,57094,LEUZE-EN-HAINAUT,2,Wallonie
3370,Willebringen,24016,BOUTERSEM,1,Flandre
2830,Willebroek,12040,WILLEBROEK,1,Flandre
7506,Willemeau,57081,TOURNAI,2,Wallonie
5575,Willerzie,91054,GEDINNE,2,Wallonie
2610,Wilrijk (Antwerpen),11002,ANVERS,1,Flandre
3012,Wilsele,24062,LOUVAIN,1,Flandre
8431,Wilskerke,35011,MIDDELKERKE,1,Flandre
3501,Wimmertingen,71022,HASSELT,1,Flandre
5570,Winenne,91013,BEAURAING,2,Wallonie
3020,Winksele,24038,HERENT,1,Flandre
3722,Wintershoven,73040,KORTESSEM,1,Flandre
6860,Witry,84033,LEGLISE,2,Wallonie
7890,Wodecq,51017,ELLEZELLES,2,Wallonie
8640,Woesten,33041,VLETEREN,1,Flandre
6780,Wolkrange,81015,MESSANCY,2,Wallonie
1200,Woluwe-Saint-Lambert,21018,WOLUWE-SAINT-LAMBERT,3,Bruxelles
1150,Woluwe-Saint-Pierre,21019,WOLUWE-SAINT-PIERRE,3,Bruxelles
1861,Wolvertem,23050,MEISE,1,Flandre
2160,Wommelgem,11052,WOMMELGEM,1,Flandre
3350,Wommersom,24133,LINTER,1,Flandre
4690,Wonck,62011,BASSENGE,2,Wallonie
9032,Wondelgem,44021,GAND,1,Flandre
9790,Wortegem-Petegem,45061,WORTEGEM-PETEGEM,1,Flandre
2323,Wortel,13014,HOOGSTRATEN,1,Flandre
9550,Woubrechtegem,41027,HERZELE,1,Flandre
8600,Woumen,32003,DIXMUDE,1,Flandre
8670,Wulpen,38014,KOKSIJDE,1,Flandre
8952,Wulvergem,33039,HEUVELLAND,1,Flandre
2990,Wuustwezel,11053,WUUSTWEZEL,1,Flandre
4652,Xhendelesse,63035,HERVE,2,Wallonie
4432,Xhendremael,62003,ANS,2,Wallonie
4190,Xhoris,61019,FERRIERES,2,Wallonie
4550,Yernée-Fraineux,61043,NANDRIN,2,Wallonie
5650,Yves-Gomezée,93088,WALCOURT,2,Wallonie
5530,Yvoir,91141,YVOIR,2,Wallonie
9506,Zandbergen,41018,GRAMMONT,1,Flandre
8680,Zande,32010,KOEKELARE,1,Flandre
2240,Zandhoven,11054,ZANDHOVEN,1,Flandre
2040,Zandvliet,11002,ANVERS,1,Flandre
8400,Zandvoorde (Oostende),35013,OSTENDE,1,Flandre
9500,Zarlardinge,41018,GRAMMONT,1,Flandre
8610,Zarren,32011,KORTEMARK,1,Flandre
1930,Zaventem,23094,ZAVENTEM,1,Flandre
8210,Zedelgem,31040,ZEDELGEM,1,Flandre
8380,Zeebrugge (Brugge),31005,BRUGES,1,Flandre
9660,Zegelsem,45059,BRAKEL,1,Flandre
9240,Zele,42028,ZELE,1,Flandre
3545,Zelem,71020,HALEN,1,Flandre
1731,Zellik,23002,ASSE,1,Flandre
9060,Zelzate,43018,ZELZATE,1,Flandre
1980,Zemst,23096,ZEMST,1,Flandre
3800,Zepperen,71053,SAINT-TROND,1,Flandre
8490,Zerkegem,31012,JABBEKE,1,Flandre
1370,Zétrud-Lumay,25048,JODOIGNE,2,Wallonie
8470,Zevekote,35005,GISTEL,1,Flandre
9080,Zeveneken,44034,LOCHRISTI,1,Flandre
9800,Zeveren,44011,DEINZE,1,Flandre
9840,Zevergem,44012,DE PINTE,1,Flandre
3271,Zichem,24134,MONTAIGU-ZICHEM,1,Flandre
3770,Zichen-Zussen-Bolder,73066,RIEMST,1,Flandre
8902,Zillebeke,33011,YPRES,1,Flandre
9750,Zingem,45057,ZINGEM,1,Flandre
2260,Zoerle-Parwijs,13049,WESTERLO,1,Flandre
2980,Zoersel,11055,ZOERSEL,1,Flandre
3550,Zolder,71070,HEUSDEN-ZOLDER,1,Flandre
9930,Zomergem,44080,ZOMERGEM,1,Flandre
3520,Zonhoven,71066,ZONHOVEN,1,Flandre
8980,Zonnebeke,33037,ZONNEBEKE,1,Flandre
9520,Zonnegem,41063,SINT-LIEVENS-HOUTEM,1,Flandre
9620,Zottegem,41081,ZOTTEGEM,1,Flandre
8630,Zoutenaaie,38025,FURNES,1,Flandre
3440,Zoutleeuw,24130,LEAU,1,Flandre
8904,Zuidschote,33011,YPRES,1,Flandre
8377,Zuienkerke,31042,ZUIENKERKE,1,Flandre
9870,Zulte,44081,ZULTE,1,Flandre
9690,Zulzeke,45060,KLUISBERGEN,1,Flandre
3690,Zutendaal,71067,ZUTENDAAL,1,Flandre
9630,Zwalm,45065,ZWALM,1,Flandre
8550,Zwevegem,34042,ZWEVEGEM,1,Flandre
8750,Zwevezele,37018,WINGENE,1,Flandre
9052,Zwijnaarde,44021,GAND,1,Flandre
2070,Zwijndrecht,11056,ZWIJNDRECHT,1,Flandre